…
``` r
# How many unique genera
ploidy_data1 %>%
  group_by(Genus) %>%
  tally()
```

    ## # A tibble: 232 × 2
    ##    Genus            n
    ##    <chr>        <int>
    ##  1 Abrus            1
    ##  2 Acacia          63
    ##  3 Acmispon         3
    ##  4 Acrocarpus       1
    ##  5 Adenocarpus      3
    ##  6 Aeschynomene    10
    ##  7 Albizia          6
    ##  8 Alhagi           1
    ##  9 Amburana         1
    ## 10 Amicia           1
    ## # … with 222 more rows
…
